<svg width="50" height="50" viewBox="0 0 50 50" fill="none" xmlns="http://www.w3.org/2000/svg">
<g filter="url(#filter0_d)">
<path fill-rule="evenodd" clip-rule="evenodd" d="M40 25C40 33.2843 33.2843 40 25 40C16.7157 40 10 33.2843 10 25C10 16.7157 16.7157 10 25 10C33.2843 10 40 16.7157 40 25ZM38 25C38 32.1797 32.1797 38 25 38C17.8203 38 12 32.1797 12 25C12 17.8203 17.8203 12 25 12C32.1797 12 38 17.8203 38 25ZM34.9566 24.1245C35.5492 24.5205 35.5492 25.3915 34.9566 25.7875L21.5556 34.7418C20.8911 35.1858 20 34.7095 20 33.9103V16.0017C20 15.2025 20.8911 14.7262 21.5556 15.1702L34.9566 24.1245ZM31.2756 24.528C31.565 24.7327 31.5555 25.1651 31.2573 25.3568L22.9305 30.7106C22.5978 30.9245 22.1601 30.6856 22.1601 30.29V19.0471C22.1601 18.6415 22.6177 18.4047 22.9489 18.6389L31.2756 24.528Z" fill="white"/>
</g>
<defs>
<filter id="filter0_d" x="0" y="0" width="50" height="50" filterUnits="userSpaceOnUse" color-interpolation-filters="sRGB">
<feFlood flood-opacity="0" result="BackgroundImageFix"/>
<feColorMatrix in="SourceAlpha" type="matrix" values="0 0 0 0 0 0 0 0 0 0 0 0 0 0 0 0 0 0 127 0" result="hardAlpha"/>
<feOffset/>
<feGaussianBlur stdDeviation="5"/>
<feComposite in2="hardAlpha" operator="out"/>
<feColorMatrix type="matrix" values="0 0 0 0 0 0 0 0 0 0 0 0 0 0 0 0 0 0 0.25 0"/>
<feBlend mode="normal" in2="BackgroundImageFix" result="effect1_dropShadow"/>
<feBlend mode="normal" in="SourceGraphic" in2="effect1_dropShadow" result="shape"/>
</filter>
</defs>
</svg>
